BISC 307, Lab 1: Ecoclimate & Public Health
…
# Only run this next line ONCE EVER without the # in front: 
#install.packages("tidyverse")
library(tidyverse)
library(lubridate)

Next we will read our data into R. In the second half of lab we’ll load data from a spreadsheet csv file, but for now we’ll work with pre-formatted data in R. To load the .RData file, we use the load() function. You can also do this step by going to File > Open File on the Rstudio top menu bar, and then selecting the .Rdata file to load. However, it’s better to do this by writing out the actual code, so that you can save it and all of your steps are reproducible.

# Load .RData file with Boston & Phoenix climate data 
load("data/BOSPHO_climate.RData")

This should create two objects in your Rstudio “Environment” panel (upper right box of Rstudio) called BOS_climate and PHO_climate. Both are data frame objects with rows as observations and 5 columns with the variables. We can take a look at the first few rows of the data frame by running:

BOS_climate

## # A tibble: 27,893 x 5
##    station      date        tmax  tmin precip
##    <chr>        <date>     <int> <int>  <dbl>
##  1 BOSTON MA US 1941-01-01    39    28   0   
##  2 BOSTON MA US 1941-01-02    36    24   0.03
##  3 BOSTON MA US 1941-01-03    40    31   0.07
##  4 BOSTON MA US 1941-01-04    39    30   0.85
##  5 BOSTON MA US 1941-01-05    30    21   0   
##  6 BOSTON MA US 1941-01-06    30    19   0   
##  7 BOSTON MA US 1941-01-07    30    14   0   
##  8 BOSTON MA US 1941-01-08    30    14   0   
##  9 BOSTON MA US 1941-01-09    33    18   0.01
## 10 BOSTON MA US 1941-01-10    33    24   0   
## # … with 27,883 more rows
…
mutate() to add a column with just the month & day for each date (removing year)

group_by() to define the month-day column as the grouping variable

summarize() to calculate the 30-year statistics over the grouping variable

# Add a new column with just month & day from date
BOS_climrecent_v2 <- mutate(BOS_climrecent,
                            month_day = format(date, "%m-%d"))

# Look at the new month_day column
BOS_climrecent_v2

## # A tibble: 10,957 x 6
##    station      date        tmax  tmin precip month_day
##    <chr>        <date>     <int> <int>  <dbl> <chr>    
##  1 BOSTON MA US 1981-01-01    25    13   0    01-01    
##  2 BOSTON MA US 1981-01-02    31    12   0.22 01-02    
##  3 BOSTON MA US 1981-01-03    15     6   0    01-03    
##  4 BOSTON MA US 1981-01-04    12    -4   0    01-04    
##  5 BOSTON MA US 1981-01-05    24    -4   0    01-05    
##  6 BOSTON MA US 1981-01-06    29    16   0    01-06    
##  7 BOSTON MA US 1981-01-07    34    16   0.19 01-07    
##  8 BOSTON MA US 1981-01-08    18    11   0    01-08    
##  9 BOSTON MA US 1981-01-09    19    10   0    01-09    
## 10 BOSTON MA US 1981-01-10    23    11   0.08 01-10    
## # … with 10,947 more rows
…
Next, we’ll calculate the difference between the daily weather data of maximum temperature and the climatological 30-year mean maximum temperature to see when values differ from normal.

The first step is to attach a column with the 30-year mean daily values onto the original daily weather data frame. We’ll use the left_join() function to connect the 30-year climatology by matching up the day-month in both datasets. We’ll learn more about joins in detail later on. Then, we’ll use mutate() to make a new column that is tmax minus tmax_mean for the difference between the actual temperature and the 30-year mean temperature on that day.

# Join 30-year mean daily max temp to all yearly data and calculate difference
BOS_tmaxDiff <- BOS_climate %>%
  filter(year(date) > 1980 & year(date) < 2011) %>%
  mutate(month_day = format(date, "%m-%d")) %>%
  left_join(BOS_tmaxClimatology, by = "month_day") %>%
  mutate(tmax_diff = tmax - tmax_mean)

# Look at the new data frame
BOS_tmaxDiff

## # A tibble: 10,957 x 8
##    station      date        tmax  tmin precip month_day tmax_mean tmax_diff
##    <chr>        <date>     <int> <int>  <dbl> <chr>         <dbl>     <dbl>
##  1 BOSTON MA US 1981-01-01    25    13   0    01-01          38.7    -13.7 
##  2 BOSTON MA US 1981-01-02    31    12   0.22 01-02          38.0     -7.03
##  3 BOSTON MA US 1981-01-03    15     6   0    01-03          39.2    -24.2 
##  4 BOSTON MA US 1981-01-04    12    -4   0    01-04          39.1    -27.1 
##  5 BOSTON MA US 1981-01-05    24    -4   0    01-05          39.3    -15.3 
##  6 BOSTON MA US 1981-01-06    29    16   0    01-06          38.2     -9.23
##  7 BOSTON MA US 1981-01-07    34    16   0.19 01-07          37.5     -3.53
##  8 BOSTON MA US 1981-01-08    18    11   0    01-08          36.2    -18.2 
##  9 BOSTON MA US 1981-01-09    19    10   0    01-09          36.1    -17.1 
## 10 BOSTON MA US 1981-01-10    23    11   0.08 01-10          34.7    -11.7 
## # … with 10,947 more rows
…
The above plot and quantile calculation shows that in Boston, there about a 5% chance of having a day that is about 14-15 degrees warmer or colder than average. This is a small but non-negligible probability. We can use the probability density for Boston maximum temperature departures as a benchmark to assess whether Phoenix’s maximum temperatures are more or less predictable than Boston’s.

Code Challenge 3: Produce a plot that shows the probability density for the difference between daily maximum tempearture and the 30-year climatological mean for Phoenix. Comparing the probability densities of maximum temperature departures for Boston and Phoenix, which city is more likely to experience an “abnormally hot” day?

4. Individually Exerienced Temperatures (IETs)

Now we’ll investigate a dataset of Individually Exerienced Temperatures (IETs) from the Central Arizona-Phoenix (CAP) Long-Term Ecological Research (LTER) site. You can read more details about the functions that we’ll use here in the sections on Data Transformation, Sections 5.1-5.6 from the R for Data Science book.

The IETs data are stored as .csv files, which stands for comma-separated values. csv files are a plain text format for storing tabular data, such as spreadsheets, and because they are plain text (e.g. in contrast to an Excel workbook) they are more reproducible because you can open files with any computer text editor. You can also store Excel and Google sheets as csv files, which is the preferred storage format for reproducible research because it is more stable as versions of Excel and Google sheets softwares change.

To load a csv file into Rstudio, we’ll use read_csv() from the tidyverse. R also has a base function called read.csv() that doesn’t require the tidyverse package, but read_csv() has a few advantages here. Helpfully, read_csv() preserves data classes, and recognizes dates and times.

The IETs dataset has five different csv files, and you can read more about each file in IET_metadata.txt file included in the data/ directory of this repository. The metadata contains important information for interpreting the data, for example the meaning of column names, units, etc. Here we will only work with two of the csv files from this dataset - the main IET dataset and the background participant survey - but you can use the other files, if you’d like, for your lab report.

## # A tibble: 3,360 x 3
##    `Subject ID` period        temperature
##    <chr>        <chr>               <dbl>
##  1 1A           Sat, 8pm-12am        25.1
##  2 1P           Sat, 8pm-12am        26.8
##  3 1E           Sat, 8pm-12am        27.2
##  4 1B           Sat, 8pm-12am        26.8
##  5 2N           Sat, 8pm-12am        NA  
##  6 3A           Sat, 8pm-12am        NA  
##  7 1T           Sat, 8pm-12am        26.9
##  8 1C           Sat, 8pm-12am        28.7
##  9 1D           Sat, 8pm-12am        32.7
## 10 1G           Sat, 8pm-12am        26.7
## # … with 3,350 more rows

## # A tibble: 80 x 29
##    `Subject ID`  a_q1  a_q2 a_q3a a_q3b  a_q4  a_q5  a_q6 a_q7a a_q7b  a_q8
##    <chr>        <dbl> <dbl> <dbl> <dbl> <dbl> <dbl> <dbl> <dbl> <dbl> <dbl>
##  1 1A               2    NA     3     0    14     1     1     2     1     5
##  2 1P              NA    NA    NA    NA    NA    NA    NA    NA    NA    NA
##  3 1E               4     2     3     0    14     5     2     2    NA     2
##  4 1B              NA    NA    NA    NA    NA    NA    NA    NA    NA    NA
##  5 2N               3     2     1     0    15     5     8     1    NA     1
##  6 3A               3     1     5     0     2     5     2     2    NA     1
##  7 1T              NA    NA    NA    NA    NA    NA    NA    NA    NA    NA
##  8 1C               3     1     1     0    15     2     1    NA     1     2
##  9 1D               2     2     3     0    14     1     1    NA     1     2
## 10 1G               3     2     6     0    14     1     1     2    NA     5
## # … with 70 more rows, and 18 more variables: a_q9 <dbl>, a_q10 <dbl>,
## #   a_q11 <dbl>, a_q12 <dbl>, a_q13a <dbl>, a_q13b <dbl>, a_q13c <dbl>,
## #   a_q14 <dbl>, a_q15 <dbl>, a_q16 <dbl>, a_q17 <dbl>, a_q18 <dbl>,
## #   a_q19 <dbl>, a_q20 <dbl>, a_q21 <dbl>, a_q22 <dbl>, a_q23 <dbl>,
## #   a_q24 <dbl>
…
To separate out the neighborhood piece of the Subject ID from the participant ID, we’ll use a function called string subset str_sub() from the stringr package. This function clips a string (a set of letters or characters) based on the numeric order of letters within that string. For example, the Subject ID string in the first row of the IETs tibble is 1A, where we want to clip out the first character 1 into the new neighborhood column and the second character A into the new ID column.

We’ll use these stringr functions in this lab, but you shouldn’t worry about understanding all the details: the main point of this lab is to focus on the use of the data transformation verbs, but we can’t avoid cleaning things up with stringr in order to use this dataset. Remember that learning R is like learning a new language, and you can think about the stringr commands in this lab as an immersion experience where you might not understand every detail, but can focus on the purpose of how these functions are helping us with the key Data Transformation verbs.

# Make a new tibble with columns for neighborhood and ID
# We need to surround Subject ID with backticks `` because it has a space in the name
# str_sub(column name, from character, to character)
IETs_nbh <- mutate(IETs, 
                   neighborhood = str_sub(`Subject ID`,1,1),
                   ID = str_sub(`Subject ID`,2,2))

# Look at the new tibble
IETs_nbh

## # A tibble: 3,360 x 5
##    `Subject ID` period        temperature neighborhood ID   
##    <chr>        <chr>               <dbl> <chr>        <chr>
##  1 1A           Sat, 8pm-12am        25.1 1            A    
##  2 1P           Sat, 8pm-12am        26.8 1            P    
##  3 1E           Sat, 8pm-12am        27.2 1            E    
##  4 1B           Sat, 8pm-12am        26.8 1            B    
##  5 2N           Sat, 8pm-12am        NA   2            N    
##  6 3A           Sat, 8pm-12am        NA   3            A    
##  7 1T           Sat, 8pm-12am        26.9 1            T    
##  8 1C           Sat, 8pm-12am        28.7 1            C    
##  9 1D           Sat, 8pm-12am        32.7 1            D    
## 10 1G           Sat, 8pm-12am        26.7 1            G    
## # … with 3,350 more rows
…
In this plot it sort of looks like the IETs from neighborhood 5 are lower than those from the other neighborhoods. However, this plot summarizes the data across all times of day, which could introduce varibility into the range within each neighborhood.

To look at differences in IETs by time of day, we’ll summarize the data by each time period (12am-4am, 4am-8am, etc.) as well. We’ll use mutate() to separate the time period strings and day of the week from the period column of IETs_nbh. We’ll use the function str_split_fixed() from the stringr package to separate the period strings into two columns - one for day of week (dow) and one for hours (hrs) - at the “comma and space” within each string.

# Make new columns for day of week (dow) and time period (hrs)
# str_split_fixed(column name, "separator character", 
#                 number of columns to expect)[,column number]
IETs_nbh_time <- mutate(IETs_nbh, 
                 dow = str_split_fixed(period, ", ", n = 2)[,1],
                 hrs = str_split_fixed(period, ", ", n = 2)[,2])

# Look at the new tibble
IETs_nbh_time

## # A tibble: 3,360 x 7
##    `Subject ID` period        temperature neighborhood ID    dow   hrs     
##    <chr>        <chr>               <dbl> <chr>        <chr> <chr> <chr>   
##  1 1A           Sat, 8pm-12am        25.1 1            A     Sat   8pm-12am
##  2 1P           Sat, 8pm-12am        26.8 1            P     Sat   8pm-12am
##  3 1E           Sat, 8pm-12am        27.2 1            E     Sat   8pm-12am
##  4 1B           Sat, 8pm-12am        26.8 1            B     Sat   8pm-12am
##  5 2N           Sat, 8pm-12am        NA   2            N     Sat   8pm-12am
##  6 3A           Sat, 8pm-12am        NA   3            A     Sat   8pm-12am
##  7 1T           Sat, 8pm-12am        26.9 1            T     Sat   8pm-12am
##  8 1C           Sat, 8pm-12am        28.7 1            C     Sat   8pm-12am
##  9 1D           Sat, 8pm-12am        32.7 1            D     Sat   8pm-12am
## 10 1G           Sat, 8pm-12am        26.7 1            G     Sat   8pm-12am
## # … with 3,350 more rows
…
# GROUP BY NEIGHBORHOOD & TIME PERIOD
# Group the IETs_nbh_time tibble by neighborhood and hrs
# Calculate mean temperature & standard deviation of temperature for each neighborhood, for each time period
IETs_nbh_time_sum <- group_by(IETs_nbh_time, neighborhood, hrs) %>%
  summarize(Tmean = mean(temperature, na.rm=TRUE),
            Tsd = sd(temperature, na.rm=TRUE),
            count = n())

## `summarise()` regrouping output by 'neighborhood' (override with `.groups` argument)

# Look at all the summary stats of neighborhood x time period
IETs_nbh_time_sum

## # A tibble: 30 x 5
## # Groups:   neighborhood [5]
##    neighborhood hrs      Tmean   Tsd count
##    <chr>        <chr>    <dbl> <dbl> <int>
##  1 1            12am-4am  26.9  1.85    77
##  2 1            12pm-4pm  29.0  2.86    77
##  3 1            4am-8am   26.6  1.77    77
##  4 1            4pm-8pm   29.2  2.79    77
##  5 1            8am-12pm  28.3  2.83    77
##  6 1            8pm-12am  27.8  1.99    77
##  7 2            12am-4am  25.6  2.76   133
##  8 2            12pm-4pm  28.5  2.41   133
##  9 2            4am-8am   26.1  2.10   133
## 10 2            4pm-8pm   28.4  2.32   133
## # … with 20 more rows

# Arrange tibble to find the warmest time period & neighborhood
IETs_sum_sort <- arrange(IETs_nbh_time_sum, desc(Tmean))

# Look at tibble
IETs_sum_sort

## # A tibble: 30 x 5
## # Groups:   neighborhood [5]
##    neighborhood hrs      Tmean   Tsd count
##    <chr>        <chr>    <dbl> <dbl> <int>
##  1 4            12pm-4pm  29.3  2.49   133
##  2 3            4pm-8pm   29.2  2.60   140
##  3 1            4pm-8pm   29.2  2.79    77
##  4 4            4pm-8pm   29.1  2.23   133
##  5 1            12pm-4pm  29.0  2.86    77
##  6 3            12pm-4pm  28.9  3.22   140
##  7 2            12pm-4pm  28.5  2.41   133
##  8 2            4pm-8pm   28.4  2.32   133
##  9 1            8am-12pm  28.3  2.83    77
## 10 4            8am-12pm  28.2  2.16   133
## # … with 20 more rows
…
